{
    "defaultSeverity": "error",
    "extends": [
        "tslint:recommended",
        "tslint-clean-code"
    ],
    "jsRules": {},
    "rules": {
        "object-literal-sort-keys": false,
        "interface-name": false,
        "no-var-requires": false,
        "trailing-comma": false,
        "max-line-length": false,
        "newspaper-order": false,
        "quotemark": [true, "single", "avoid-escape", "avoid-template"]
    }
}